…
    ## # A tibble: 3 x 1
    ##   bacia      
    ##   <chr>      
    ## 1 Rio Madeira
    ## 2 Rio Mamoré 
    ## 3 Rio Guaporé

``` r
dados_prm %>% 
select(ordem, peso_g)
```

    ## # A tibble: 99,370 x 2
    ##    ordem         peso_g
    ##    <chr>          <dbl>
    ##  1 Siluriformes      35
    ##  2 Siluriformes      35
    ##  3 Siluriformes      25
    ##  4 Characiformes    265
    ##  5 Siluriformes     160
    ##  6 Characiformes    130
    ##  7 Siluriformes      25
    ##  8 Characiformes     65
    ##  9 Cichliformes      15
    ## 10 Characiformes    250
    ## # ... with 99,360 more rows
…
``` r
dados_prm %>% 
  mutate(
   sexo_recode = recode(
    sexo,
    "Fêmea" = "Fêmea",
    "Macho" = "Macho",
    "fêmea" = "Fêmea",
    "Não coletado" = "Não coletado"
   ) 
  ) 
```

    ## # A tibble: 99,370 x 22
    ##       id tipo_campanha campanha data                  mes   ano ciclo_hidrologi~
    ##    <dbl> <chr>         <chr>    <dttm>              <dbl> <dbl> <chr>           
    ##  1     1 Mensal        Mensal 1 2010-05-03 00:00:00     5  2010 Vazante         
    ##  2     2 Mensal        Mensal 1 2010-05-03 00:00:00     5  2010 Vazante         
    ##  3     3 Mensal        Mensal 1 2010-05-03 00:00:00     5  2010 Vazante         
    ##  4     4 Mensal        Mensal 1 2010-05-03 00:00:00     5  2010 Vazante         
    ##  5     5 Mensal        Mensal 1 2010-05-03 00:00:00     5  2010 Vazante         
    ##  6     6 Mensal        Mensal 1 2010-05-03 00:00:00     5  2010 Vazante         
    ##  7     7 Mensal        Mensal 1 2010-05-03 00:00:00     5  2010 Vazante         
    ##  8     8 Mensal        Mensal 1 2010-05-03 00:00:00     5  2010 Vazante         
    ##  9     9 Mensal        Mensal 1 2010-05-03 00:00:00     5  2010 Vazante         
    ## 10    10 Mensal        Mensal 1 2010-05-03 00:00:00     5  2010 Vazante         
    ## # ... with 99,360 more rows, and 15 more variables: bacia <chr>,
    ## #   ambiente <chr>, local <dbl>, ponto <chr>, especie <chr>, genero <chr>,
    ## #   familia <chr>, ordem <chr>, nome_comum <chr>, cp_cm <dbl>, peso_g <dbl>,
    ## #   sexo <chr>, estadio_de_maturacao <chr>, habito_alimentar <chr>,
    ## #   sexo_recode <chr>
…
``` r
dados_ctc %>% view() 
```

``` r
dados_ctc %>% 
  group_by(rendimento_liquido) %>% 
  summarise(n = n()) %>% 
    arrange(desc(rendimento_liquido))
```

    ## # A tibble: 90,937 x 2
    ##    rendimento_liquido     n
    ##                 <dbl> <int>
    ##  1           7267672.     1
    ##  2           2874516.     1
    ##  3            683094.     1
    ##  4            660934.     1
    ##  5            511424.     1
    ##  6            477756.     1
    ##  7            422214.     1
    ##  8            421106.     1
    ##  9            398141.     1
    ## 10            389054.     1
    ## # ... with 90,927 more rows
…
    ## # A tibble: 1 x 1
    ##       n
    ##   <int>
    ## 1  1136

**b**</br>Pelos dados calculados abaixo: O Tribunal Regional do Trabalho
da 7ª Região (CE) é que possui maior variabilidade.

``` r
dados_ctc %>% 
  distinct(tribunal)
```

    ## # A tibble: 128 x 1
    ##    tribunal                                                                
    ##    <chr>                                                                   
    ##  1 Superior Tribunal de Justiça                                            
    ##  2 Superior Tribunal Militar                                               
    ##  3 Conselho Nacional de Justiça                                            
    ##  4 Tribunal Superior do Trabalho / Conselho Superior da Justiça do Trabalho
    ##  5 Tribunal Superior Eleitoral                                             
    ##  6 Conselho da Justiça Federal                                             
    ##  7 Tribunal Regional Federal da 1a Região                                  
    ##  8 Tribunal Regional Federal da 2a Região                                  
    ##  9 Tribunal Regional Federal da 3a Região                                  
    ## 10 Tribunal Regional Federal da 4a Região                                  
    ## # ... with 118 more rows
…
``` r
dados_ctc %>% 
  group_by(tribunal) %>% 
  select(rendimento_liquido) %>% 
  drop_na() %>% 
  summarise(
    media_rendimento = mean(rendimento_liquido)
  )
```

    ## Adding missing grouping variables: `tribunal`

    ## # A tibble: 128 x 2
    ##    tribunal                            media_rendimento
    ##    <chr>                                          <dbl>
    ##  1 Conselho da Justiça Federal                    1328.
    ##  2 Conselho Nacional de Justiça                   6333.
    ##  3 Superior Tribunal de Justiça                  28823.
    ##  4 Superior Tribunal Militar                     30118.
    ##  5 Tribunal de Justiça da Bahia                  34935.
    ##  6 Tribunal de Justiça da Paraíba                26949.
    ##  7 Tribunal de Justiça de Alagoas                37809.
    ##  8 Tribunal de Justiça de Goiás                  30591.
    ##  9 Tribunal de Justiça de Minas Gerais           46560.
    ## 10 Tribunal de Justiça de Pernambuco             22337.
    ## # ... with 118 more rows

``` r
dados_ctc %>% 
  group_by(tribunal) %>% 
  select(rendimento_liquido) %>% 
  drop_na() %>% 
  summarise(
    dp_rendimento = sd(rendimento_liquido), dp_rendimento = n()) %>% 
  arrange(desc(dp_rendimento))
```

    ## Adding missing grouping variables: `tribunal`

    ## # A tibble: 128 x 2
    ##    tribunal                                 dp_rendimento
    ##    <chr>                                            <int>
    ##  1 Tribunal de Justiça de São Paulo                 17220
    ##  2 Tribunal de Justiça de Minas Gerais               9278
    ##  3 Tribunal de Justiça do Rio de Janeiro             7629
    ##  4 Tribunal de Justiça do Rio Grande do Sul          7347
    ##  5 Tribunal de Justiça do Paraná                     6362
    ##  6 Tribunal de Justiça de Goiás                      4270
    ##  7 Tribunal de Justiça de Pernambuco                 4174
    ##  8 Tribunal Regional Federal da 1a Região            4092
    ##  9 Tribunal de Justiça de Santa Catarina             3960
    ## 10 Tribunal de Justiça da Bahia                      3605
    ## # ... with 118 more rows

``` r
dados_ctc %>% 
  group_by(tribunal) %>% 
  select(rendimento_liquido) %>% 
  drop_na() %>% 
  summarise(
    cv = (sd(rendimento_liquido)/mean(rendimento_liquido)) * 100)  
```

    ## Adding missing grouping variables: `tribunal`

    ## # A tibble: 128 x 2
    ##    tribunal                               cv
    ##    <chr>                               <dbl>
    ##  1 Conselho da Justiça Federal          61.2
    ##  2 Conselho Nacional de Justiça        169. 
    ##  3 Superior Tribunal de Justiça         57.2
    ##  4 Superior Tribunal Militar            26.8
    ##  5 Tribunal de Justiça da Bahia         38.4
    ##  6 Tribunal de Justiça da Paraíba       12.7
    ##  7 Tribunal de Justiça de Alagoas       72.6
    ##  8 Tribunal de Justiça de Goiás         62.2
    ##  9 Tribunal de Justiça de Minas Gerais  39.5
    ## 10 Tribunal de Justiça de Pernambuco    33.0
    ## # ... with 118 more rows
…
``` r
dados_cp %>% view()
```

``` r
dados_cp %>% 
  select(nome)
```

    ## # A tibble: 41,447 x 1
    ##    nome      
    ##    <chr>     
    ##  1 Medicina  
    ##  2 Enfermagem
    ##  3 Medicina  
    ##  4 Psicologia
    ##  5 Medicina  
    ##  6 Medicina  
    ##  7 Medicina  
    ##  8 Medicina  
    ##  9 Medicina  
    ## 10 Medicina  
    ## # ... with 41,437 more rows

``` r
dados_cp %>% 
  distinct(nome)
```

    ## # A tibble: 296 x 1
    ##    nome                    
    ##    <chr>                   
    ##  1 Medicina                
    ##  2 Enfermagem              
    ##  3 Psicologia              
    ##  4 Engenharia de Computação
    ##  5 Educação Física         
    ##  6 Direito                 
    ##  7 Engenharia de Produção  
    ##  8 Fisioterapia            
    ##  9 Administração           
    ## 10 Engenharia Civil        
    ## # ... with 286 more rows
…
